Wukong/Binaries/Win64/Wukong-Win64-Shipping.exe	2020-10-28T21:59:57.611Z
Engine/Binaries/ThirdParty/Oculus/OVRPlugin/OVRPlugin/Win64/OVRPlugin.dll	2020-06-06T14:54:08.775Z
Engine/Binaries/ThirdParty/DbgHelp/dbghelp.dll	2020-06-06T14:54:05.362Z
Engine/Binaries/ThirdParty/PhysX3/Win64/VS2015/PxFoundation_x64.dll	2020-06-06T14:54:15.167Z
Engine/Binaries/ThirdParty/PhysX3/Win64/VS2015/PxPvdSDK_x64.dll	2020-06-06T14:54:15.589Z
Engine/Binaries/ThirdParty/PhysX3/Win64/VS2015/PhysX3_x64.dll	2020-06-06T14:54:14.514Z
Engine/Binaries/ThirdParty/PhysX3/Win64/VS2015/PhysX3Cooking_x64.dll	2020-06-06T14:54:14.831Z
Engine/Binaries/ThirdParty/PhysX3/Win64/VS2015/PhysX3Common_x64.dll	2020-06-06T14:54:14.615Z
Engine/Binaries/ThirdParty/PhysX3/Win64/VS2015/APEX_Clothing_x64.dll	2020-06-06T14:54:13.068Z
Engine/Binaries/ThirdParty/PhysX3/Win64/VS2015/APEX_Legacy_x64.dll	2020-06-06T14:54:13.868Z
Engine/Binaries/ThirdParty/PhysX3/Win64/VS2015/ApexFramework_x64.dll	2020-06-06T14:54:14.324Z
Engine/Binaries/ThirdParty/PhysX3/Win64/VS2015/APEX_Destructible_x64.dll	2020-06-06T14:54:13.810Z
Engine/Binaries/ThirdParty/PhysX3/Win64/VS2015/NvCloth_x64.dll	2020-06-06T14:54:14.499Z
Engine/Binaries/ThirdParty/Ogg/Win64/VS2015/libogg_64.dll	2020-06-06T14:54:08.778Z
Engine/Binaries/ThirdParty/Vorbis/Win64/VS2015/libvorbis_64.dll	2020-06-06T14:54:22.312Z
Engine/Binaries/ThirdParty/Vorbis/Win64/VS2015/libvorbisfile_64.dll	2020-06-06T14:54:22.312Z
Engine/Binaries/ThirdParty/NVIDIA/NVaftermath/Win64/GFSDK_Aftermath_Lib.x64.dll	2020-08-29T22:25:12.337Z
Engine/Binaries/ThirdParty/OpenVR/OpenVRv1_5_17/Win64/openvr_api.dll	2020-06-06T14:54:08.801Z
Engine/Binaries/ThirdParty/Windows/XAudio2_9/x64/xaudio2_9redist.dll	2020-06-06T14:54:22.689Z
Wukong.exe	2020-10-28T22:41:02.872Z
